{
  "extensionName": {
    "message": "GAFALink"
  },
  "extensionDescription": {
    "message": "GAFALink highlights links to proprietary services, making them easier to avoid."
  },
  "actionTitle": {
    "message": "Toggle GAFALink on this page"
  },
  "exampleLink": {
    "message": "Example link"
  },
  "colors": {
    "message": "Colors"
  },
  "textColor": {
    "message": "Text color"
  },
  "backgroundColor": {
    "message": "Background color"
  },
  "opacity": {
    "message": "Opacity"
  },
  "font": {
    "message": "Font"
  },
  "fontFamily": {
    "message": "Font family"
  },
  "bold": {
    "message": "Bold"
  },
  "italic": {
    "message": "Italic"
  },
  "size": {
    "message": "Size (factor)"
  },
  "decoration": {
    "message": "Decoration"
  },
  "noDecoration": {
    "message": "None"
  },
  "underline": {
    "message": "Underline"
  },
  "strikethrough": {
    "message": "Strikethrough"
  },
  "normalLinks": {
    "message": "Normal links"
  },
  "visitedLinks": {
    "message": "Visited links"
  },
  "useVisitedStyle": {
    "message": "Use a different style for visited links"
  },
  "delete": {
    "message": "Delete"
  },
  "optionsTitle": {
    "message": "Options — GAFALink"
  },
  "showNotification": {
    "message": "Show a notification when a proprietary service is used."
  },
  "style": {
    "message": "Style"
  },
  "resetStyle": {
    "message": "Reset style"
  },
  "love": {
    "message": "❤️"
  },
  "thanksIconBefore": {
    "message": "Thanks to"
  },
  "thanksIconAfter": {
    "message": "who created a nice icon."
  },
  "thanksCodeBefore": {
    "message": "Thanks to"
  },
  "thanksCodeAfter": {
    "message": "who contribute to the code."
  },
  "thanksListBefore": {
    "message": "And thanks to"
  },
  "and": {
    "message": "and"
  },
  "thanksListAfter": {
    "message": "who helped to list all the services to avoid."
  },
  "gafamAndCo": {
    "message": "GAFAM and Co."
  },
  "import": {
    "message": "Import"
  },
  "export": {
    "message": "Export"
  },
  "resetList": {
    "message": "Reset the list"
  },
  "listInfoOne": {
    "message": "If you want to add a domain to the official list (and not only to your computer), you have three options. You can either write a comment"
  },
  "addonPage": {
    "message": "on the extension's page"
  },
  "listInfoTwo": {
    "message": ", open an issue on"
  },
  "framagit": {
    "message": "Framagit"
  },
  "listInfoThree": {
    "message": "if you have an account, or tell me the domains you want on"
  },
  "mastodon": {
    "message": "Mastodon"
  },
  "add": {
    "message": "Add"
  },
  "domain": {
    "message": "Domain"
  },
  "badgeOff": {
    "message": "Turn off GAFALink on this page"
  },
  "badgeOn": {
    "message": "Turn on GAFALink on this page"
  },
  "proprietaryService": {
    "message": "$1 is a proprietary service."
  },
  "libreAlt": {
    "message": "Prefer libre alternatives!"
  }
}
